Dataset\Datasets.class
TestCases\TestCases.class
Utils\Utils.class
Model\Birthdate.class
Utils\Utils$1.class
Model\User.class
PageObjects\LoginPage\LoginPage.class
PageObjects\LoginPage\LoginPageConstants.class
